{"channels":[{"channelId":13349,
"channelNumber":24,
"description":"KTVK-DT Phoenix, Ariz. (IND)",
"channelLogo":"http:\/\/streamvisionhq.com\/assets\/data\/image\/ABC_1426197998.jpg"
},{"channelId":13350,"channelNumber":24,"description":"","channelLogo":"http:\/\/streamvisionhq.com\/assets\/data\/image\/ABC_1426197998.jpg"},{"channelId":14076,"channelNumber":17,"description":"KPHO-DT Phoenix, Ariz. (CBS)","channelLogo":"http:\/\/streamvisionhq.com\/assets\/data\/image\/ABC_1426197998.jpg"},{"channelId":2000052,"channelNumber":17,"description":"KAIL-DT2 Fresno, Calif. (Cozi TV)","channelLogo":"http:\/\/streamvisionhq.com\/assets\/data\/image\/ABC_1426197998.jpg"},{"channelId":13449,"channelNumber":7,"description":"KAZT-DT Prescott, Ariz. (IND)","channelLogo":"http:\/\/streamvisionhq.com\/assets\/data\/image\/ABC_1426197998.jpg"},{"channelId":13450,"channelNumber":7,"description":"KAZT-DT2 Prescott, Ariz. (MeTV)","channelLogo":"http:\/\/streamvisionhq.com\/assets\/data\/image\/ABC_1426197998.jpg"},{"channelId":2000681,"channelNumber":7,"description":"KAZT-DT3 Prescott, Ariz. (HSN)","channelLogo":"http:\/\/streamvisionhq.com\/assets\/data\/image\/ABC_1426197998.jpg"},{"channelId":14744,"channelNumber":8,"description":"KAET-DT Phoenix, Ariz. (PBS)","channelLogo":"http:\/\/streamvisionhq.com\/assets\/data\/image\/ABC_1426197998.jpg"},{"channelId":14745,"channelNumber":8,"description":"KAET-DT2 Phoenix, Ariz. (Life)","channelLogo":"http:\/\/streamvisionhq.com\/assets\/data\/image\/ABC_1426197998.jpg"},{"channelId":14746,"channelNumber":8,"description":"KAET-DT3 Phoenix, Ariz. (World)","channelLogo":"http:\/\/streamvisionhq.com\/assets\/data\/image\/ABC_1426197998.jpg"},{"channelId":2000039,"channelNumber":8,"description":"KAET-DT4 Phoenix, Ariz. (KBAQ Radio)","channelLogo":"http:\/\/streamvisionhq.com\/assets\/data\/image\/ABC_1426197998.jpg"},{"channelId":13870,"channelNumber":10,"description":"KSAZ-DT Phoenix, Ariz. (FOX)","channelLogo":"http:\/\/streamvisionhq.com\/assets\/data\/image\/ABC_1426197998.jpg"},{"channelId":2001561,"channelNumber":10,"description":"","channelLogo":"http:\/\/streamvisionhq.com\/assets\/data\/image\/ABC_1426197998.jpg"},{"channelId":14093,"channelNumber":12,"description":"KPNX-DT Mesa, Ariz. (NBC)","channelLogo":"http:\/\/streamvisionhq.com\/assets\/data\/image\/ABC_1426197998.jpg"},{"channelId":14094,"channelNumber":12,"description":"KPNX-DT2 Mesa, Ariz. (News)","channelLogo":"http:\/\/streamvisionhq.com\/assets\/data\/image\/ABC_1426197998.jpg"},{"channelId":13971,"channelNumber":15,"description":"KNXV-DT Phoenix, Ariz. (ABC)","channelLogo":"http:\/\/streamvisionhq.com\/assets\/data\/image\/ABC_1426197998.jpg"},{"channelId":13972,"channelNumber":15,"description":"KNXV-DT2 Phoenix, Ariz. (ATV)","channelLogo":"http:\/\/streamvisionhq.com\/assets\/data\/image\/ABC_1426197998.jpg"},{"channelId":14064,"channelNumber":20,"description":"KPAZ-DT Phoenix, Ariz. (TBN)","channelLogo":"http:\/\/streamvisionhq.com\/assets\/data\/image\/ABC_1426197998.jpg"},{"channelId":14065,"channelNumber":20,"description":"KPAZ-DT2 Phoenix, Ariz. (Church)","channelLogo":"http:\/\/streamvisionhq.com\/assets\/data\/image\/ABC_1426197998.jpg"},{"channelId":14066,"channelNumber":20,"description":"KPAZ-DT3 Phoenix, Ariz. (Juce)","channelLogo":"http:\/\/streamvisionhq.com\/assets\/data\/image\/ABC_1426197998.jpg"},{"channelId":14067,"channelNumber":20,"description":"KPAZ-DT4 Phoenix, Ariz. (TBN Enlace)","channelLogo":"http:\/\/streamvisionhq.com\/assets\/data\/image\/ABC_1426197998.jpg"},{"channelId":14068,"channelNumber":20,"description":"KPAZ-DT5 Phoenix, Ariz. (Smile)","channelLogo":"http:\/\/streamvisionhq.com\/assets\/data\/image\/ABC_1426197998.jpg"},{"channelId":2002938,"channelNumber":22,"description":"","channelLogo":"http:\/\/streamvisionhq.com\/assets\/data\/image\/ABC_1426197998.jpg"},{"channelId":2002940,"channelNumber":22,"description":"Mexicanal","channelLogo":"http:\/\/streamvisionhq.com\/assets\/data\/image\/ABC_1426197998.jpg"},{"channelId":2009174,"channelNumber":22,"description":"","channelLogo":"http:\/\/streamvisionhq.com\/assets\/data\/image\/ABC_1426197998.jpg"},{"channelId":2009185,"channelNumber":22,"description":"","channelLogo":"http:\/\/streamvisionhq.com\/assets\/data\/image\/ABC_1426197998.jpg"},{"channelId":2009175,"channelNumber":22,"description":"","channelLogo":"http:\/\/streamvisionhq.com\/assets\/data\/image\/ABC_1426197998.jpg"},{"channelId":2009177,"channelNumber":22,"description":"","channelLogo":"http:\/\/streamvisionhq.com\/assets\/data\/image\/ABC_1426197998.jpg"},{"channelId":2009178,"channelNumber":18,"description":"","channelLogo":"http:\/\/streamvisionhq.com\/assets\/data\/image\/ABC_1426197998.jpg"},{"channelId":13369,"channelNumber":33,"description":"KTVW-DT Phoenix, Ariz. (Univision)","channelLogo":"http:\/\/streamvisionhq.com\/assets\/data\/image\/ABC_1426197998.jpg"},{"channelId":13370,"channelNumber":33,"description":"KTVW-DT2 Phoenix, Ariz. (UniMas)","channelLogo":"http:\/\/streamvisionhq.com\/assets\/data\/image\/ABC_1426197998.jpg"},{"channelId":2007038,"channelNumber":33,"description":"","channelLogo":"http:\/\/streamvisionhq.com\/assets\/data\/image\/ABC_1426197998.jpg"},{"channelId":2000375,"channelNumber":13,"description":"KFPH-DT Flagstaff, Ariz. (UniMas)","channelLogo":"http:\/\/streamvisionhq.com\/assets\/data\/image\/ABC_1426197998.jpg"},{"channelId":2007162,"channelNumber":13,"description":"","channelLogo":"http:\/\/streamvisionhq.com\/assets\/data\/image\/ABC_1426197998.jpg"},{"channelId":2005942,"channelNumber":35,"description":"","channelLogo":"http:\/\/streamvisionhq.com\/assets\/data\/image\/ABC_1426197998.jpg"},{"channelId":2007039,"channelNumber":35,"description":"","channelLogo":"http:\/\/streamvisionhq.com\/assets\/data\/image\/ABC_1426197998.jpg"},{"channelId":2004670,"channelNumber":38,"description":"","channelLogo":"http:\/\/streamvisionhq.com\/assets\/data\/image\/ABC_1426197998.jpg"},{"channelId":2004671,"channelNumber":38,"description":"","channelLogo":"http:\/\/streamvisionhq.com\/assets\/data\/image\/ABC_1426197998.jpg"},{"channelId":2004672,"channelNumber":38,"description":"","channelLogo":"http:\/\/streamvisionhq.com\/assets\/data\/image\/ABC_1426197998.jpg"},{"channelId":2004673,"channelNumber":38,"description":"","channelLogo":"http:\/\/streamvisionhq.com\/assets\/data\/image\/ABC_1426197998.jpg"},{"channelId":14964,"channelNumber":39,"description":"KTAZ-DT Phoenix, Ariz. (Telemundo)","channelLogo":"http:\/\/streamvisionhq.com\/assets\/data\/image\/ABC_1426197998.jpg"},{"channelId":2003281,"channelNumber":39,"description":"Exitos TV West","channelLogo":"http:\/\/streamvisionhq.com\/assets\/data\/image\/ABC_1426197998.jpg"},{"channelId":2003283,"channelNumber":39,"description":"KTAZ-DT3 Phoenix, Ariz. (Cozi TV)","channelLogo":"http:\/\/streamvisionhq.com\/assets\/data\/image\/ABC_1426197998.jpg"},{"channelId":5462,"channelNumber":41,"description":"KPDF-CA Phoenix, Ariz. (Azteca)","channelLogo":"http:\/\/streamvisionhq.com\/assets\/data\/image\/ABC_1426197998.jpg"},{"channelId":2009169,"channelNumber":41,"description":"","channelLogo":"http:\/\/streamvisionhq.com\/assets\/data\/image\/ABC_1426197998.jpg"},{"channelId":2009170,"channelNumber":41,"description":"","channelLogo":"http:\/\/streamvisionhq.com\/assets\/data\/image\/ABC_1426197998.jpg"},{"channelId":2009172,"channelNumber":41,"description":"","channelLogo":"http:\/\/streamvisionhq.com\/assets\/data\/image\/ABC_1426197998.jpg"},{"channelId":2003977,"channelNumber":42,"description":"KVPA-LD Phoenix, Ariz. (Estrella)","channelLogo":"http:\/\/streamvisionhq.com\/assets\/data\/image\/ABC_1426197998.jpg"},{"channelId":2006209,"channelNumber":16,"description":"","channelLogo":"http:\/\/streamvisionhq.com\/assets\/data\/image\/ABC_1426197998.jpg"},{"channelId":2007077,"channelNumber":16,"description":"","channelLogo":"http:\/\/streamvisionhq.com\/assets\/data\/image\/ABC_1426197998.jpg"},{"channelId":2009156,"channelNumber":16,"description":"","channelLogo":"http:\/\/streamvisionhq.com\/assets\/data\/image\/ABC_1426197998.jpg"},{"channelId":2006211,"channelNumber":16,"description":"","channelLogo":"http:\/\/streamvisionhq.com\/assets\/data\/image\/ABC_1426197998.jpg"},{"channelId":13455,"channelNumber":26,"description":"KUTP-DT Phoenix, Ariz. (MyNet)","channelLogo":"http:\/\/streamvisionhq.com\/assets\/data\/image\/ABC_1426197998.jpg"},{"channelId":13456,"channelNumber":26,"description":"KUTP-DT2 Phoenix, Ariz. (Movies!)","channelLogo":"http:\/\/streamvisionhq.com\/assets\/data\/image\/ABC_1426197998.jpg"},{"channelId":2004012,"channelNumber":26,"description":"","channelLogo":"http:\/\/streamvisionhq.com\/assets\/data\/image\/ABC_1426197998.jpg"},{"channelId":2009163,"channelNumber":46,"description":"","channelLogo":"http:\/\/streamvisionhq.com\/assets\/data\/image\/ABC_1426197998.jpg"},{"channelId":2009165,"channelNumber":50,"description":"","channelLogo":"http:\/\/streamvisionhq.com\/assets\/data\/image\/ABC_1426197998.jpg"},{"channelId":2009166,"channelNumber":50,"description":"","channelLogo":"http:\/\/streamvisionhq.com\/assets\/data\/image\/ABC_1426197998.jpg"},{"channelId":2009184,"channelNumber":50,"description":"","channelLogo":"http:\/\/streamvisionhq.com\/assets\/data\/image\/ABC_1426197998.jpg"},{"channelId":2009181,"channelNumber":50,"description":"","channelLogo":"http:\/\/streamvisionhq.com\/assets\/data\/image\/ABC_1426197998.jpg"},{"channelId":2009182,"channelNumber":50,"description":"","channelLogo":"http:\/\/streamvisionhq.com\/assets\/data\/image\/ABC_1426197998.jpg"},{"channelId":2009168,"channelNumber":50,"description":"","channelLogo":"http:\/\/streamvisionhq.com\/assets\/data\/image\/ABC_1426197998.jpg"},{"channelId":13724,"channelNumber":51,"description":"KPPX-DT Tolleson, Ariz. (ION)","channelLogo":"http:\/\/streamvisionhq.com\/assets\/data\/image\/ABC_1426197998.jpg"},{"channelId":13725,"channelNumber":51,"description":"KPPX-DT2 Tolleson, Ariz. (qubo)","channelLogo":"http:\/\/streamvisionhq.com\/assets\/data\/image\/ABC_1426197998.jpg"},{"channelId":13726,"channelNumber":51,"description":"KPPX-DT3 Tolleson, Ariz. (ION Life)","channelLogo":"http:\/\/streamvisionhq.com\/assets\/data\/image\/ABC_1426197998.jpg"},{"channelId":2003207,"channelNumber":51,"description":"KPPX-DT4 Tolleson, Ariz. (Shop)","channelLogo":"http:\/\/streamvisionhq.com\/assets\/data\/image\/ABC_1426197998.jpg"},{"channelId":2004796,"channelNumber":51,"description":"","channelLogo":"http:\/\/streamvisionhq.com\/assets\/data\/image\/ABC_1426197998.jpg"},{"channelId":2009164,"channelNumber":46,"description":"","channelLogo":"http:\/\/streamvisionhq.com\/assets\/data\/image\/ABC_1426197998.jpg"},{"channelId":14789,"channelNumber":49,"description":"KASW-DT Phoenix, Ariz. (CW)","channelLogo":"http:\/\/streamvisionhq.com\/assets\/data\/image\/ABC_1426197998.jpg"}]}